<?xml version="1.0" encoding="UTF-8"?>
<session version="1.0">
<refactoring comment="Rename Operation from &apos;operation&apos; to &apos;add&apos;" description="Rename Operation from &apos;operation&apos; to &apos;add&apos;" flags="7" id="com.tibco.bw.core.design.refactoring.rename.operation" stamp="1543212573671"/>
</session>